nome,e-mail,orientador,e-mail_o,usuario,senha
allan,a@a.com,allan,a@a.com,allan,1
edu,a@a.com,edu,a@a.com,edu,1
elania,a@a.com,elania,a@a.com,elania,1
Keila,a@a.com,Keila,a@a.com,Keila,1
monique,a@a.com,monique,a@a.com,monique,1
heitor,a@a.com,heitor,a@a.com,heitor,1
elenira,a@a.com,elenira,a@a.com,elenira,1
severina,a@a.com,severina,a@a.com,severina,1
mary,a@a.com,mary,a@a.com,mary,1
danilo,a@a.com,danilo,a@a.com,danilo,1
almir,a@a.com,almir,a@a.com,almir,1
ewerson,a@a.com,ewerson,a@a.com,ewerson,1
luciene,a@a.com,luciene,a@a.com,luciene,1
geni,a@a.com,geni,a@a.com,geni,1
vanessa,a@a.com,vanessa,a@a.com,vanessa,1
vanusa,a@a.com,vanusa,a@a.com,vanusa,1
evando,a@a.com,evando,a@a.com,evando,1
jose,a@a.com,jose,a@a.com,jose,1
iclecio,a@a.com,iclecio,a@a.com,iclecio,1
jeiro,a@a.com,jeiro,a@a.com,jeiro,1
bruna,a@a.com,bruna,a@a.com,bruna,1
silvania,a@a.com,silvania,a@a.com,silvania,1
